{
  "postgre": {
    "host": "localhost",
    "database": "bill",
    "username": "",
    "password": "",
    "name": "postgre",
    "connector": "postgresql",
    "port": "5432",
    "debug": true
  }
}
